[gd_scene load_steps=3 format=2]

[ext_resource path="res://UI/UI.gd" type="Script" id=1]
[ext_resource path="res://UI/Button_Transition.gd" type="Script" id=2]



[node name="UI" type="Control" index="0"]

anchor_left = 0.0
anchor_top = 0.0
anchor_right = 0.0
anchor_bottom = 0.0
margin_right = 40.0
margin_bottom = 40.0
rect_pivot_offset = Vector2( 0, 0 )
mouse_filter = 0
mouse_default_cursor_shape = 0
size_flags_horizontal = 1
size_flags_vertical = 1
script = ExtResource( 1 )
transition = false

[node name="Next" type="Button" parent="." index="0"]

anchor_left = 0.0
anchor_top = 0.0
anchor_right = 0.0
anchor_bottom = 0.0
margin_left = 1204.0
margin_top = 670.0
margin_right = 1246.0
margin_bottom = 690.0
rect_pivot_offset = Vector2( 0, 0 )
focus_mode = 2
mouse_filter = 0
mouse_default_cursor_shape = 0
size_flags_horizontal = 1
size_flags_vertical = 1
toggle_mode = false
enabled_focus_mode = 2
shortcut = null
group = null
text = "Next"
flat = false
align = 1

[node name="Back" type="Button" parent="." index="1"]

anchor_left = 0.0
anchor_top = 0.0
anchor_right = 0.0
anchor_bottom = 0.0
margin_left = 31.0
margin_top = 666.0
margin_right = 73.0
margin_bottom = 686.0
rect_pivot_offset = Vector2( 0, 0 )
focus_mode = 2
mouse_filter = 0
mouse_default_cursor_shape = 0
size_flags_horizontal = 1
size_flags_vertical = 1
toggle_mode = false
enabled_focus_mode = 2
shortcut = null
group = null
text = "Back"
flat = false
align = 1

[node name="Transition" type="Control" parent="." index="2"]

visible = false
anchor_left = 0.0
anchor_top = 0.0
anchor_right = 0.0
anchor_bottom = 0.0
margin_right = 40.0
margin_bottom = 40.0
rect_pivot_offset = Vector2( 0, 0 )
mouse_filter = 0
mouse_default_cursor_shape = 0
size_flags_horizontal = 1
size_flags_vertical = 1

[node name="Scene1" type="Button" parent="Transition" index="0"]

anchor_left = 0.0
anchor_top = 0.0
anchor_right = 0.0
anchor_bottom = 0.0
margin_left = 564.0
margin_top = 595.0
margin_right = 626.0
margin_bottom = 615.0
rect_scale = Vector2( 3, 3 )
rect_pivot_offset = Vector2( 0, 0 )
focus_mode = 2
mouse_filter = 0
mouse_default_cursor_shape = 0
size_flags_horizontal = 1
size_flags_vertical = 1
toggle_mode = false
enabled_focus_mode = 2
shortcut = null
group = null
text = "Scene 1"
flat = false
align = 1
script = ExtResource( 2 )
_sections_unfolded = [ "Rect" ]
path = ""


